<svg width="24" height="24" viewBox="0 0 24 24" fill="none" xmlns="http://www.w3.org/2000/svg">
<path fill-rule="evenodd" clip-rule="evenodd" d="M13.3033 5.18198C13.4986 4.98672 13.4986 4.67014 13.3033 4.47487L12.8083 3.9799L10.8284 2L9.9799 2.84853L11.1692 4.03784C6.58809 4.45713 3 8.30954 3 13C3 17.9706 7.02944 22 12 22C16.9706 22 21 17.9706 21 13C21 10.5147 19.9926 8.26472 18.364 6.63604L17.5154 7.48457C18.9696 8.93869 19.8 10.9021 19.8 13C19.8 17.3078 16.3078 20.8 12 20.8C7.69218 20.8 4.2 17.3078 4.2 13C4.2 8.83411 7.46585 5.43101 11.5769 5.21128L9.9799 6.80833L10.8284 7.65685L12.8083 5.67696L13.3033 5.18198Z" fill="#4D6FFF"/>
<path d="M13.3033 4.47487L12.9497 4.82843L12.9497 4.82843L13.3033 4.47487ZM12.8083 3.9799L13.1619 3.62635L13.1619 3.62635L12.8083 3.9799ZM10.8284 2L11.182 1.64645L10.8284 1.29289L10.4749 1.64645L10.8284 2ZM9.9799 2.84853L9.62635 2.49497L9.27279 2.84853L9.62635 3.20208L9.9799 2.84853ZM11.1692 4.03784L11.2148 4.53575L12.277 4.43853L11.5228 3.68428L11.1692 4.03784ZM18.364 6.63604L18.7175 6.28249L18.364 5.92893L18.0104 6.28249L18.364 6.63604ZM17.5154 7.48457L17.1619 7.13101L16.8083 7.48457L17.1619 7.83812L17.5154 7.48457ZM11.5769 5.21128L11.9305 5.56483L12.853 4.64236L11.5503 4.71199L11.5769 5.21128ZM9.9799 6.80833L9.62635 6.45477L9.27279 6.80833L9.62635 7.16188L9.9799 6.80833ZM10.8284 7.65685L10.4749 8.01041L10.8284 8.36396L11.182 8.01041L10.8284 7.65685ZM12.8083 5.67696L13.1619 6.03051L13.1619 6.03051L12.8083 5.67696ZM12.9497 4.82843L12.9497 4.82843L13.6569 5.53553C14.0474 5.14501 14.0474 4.51184 13.6569 4.12132L12.9497 4.82843ZM12.4548 4.33345L12.9497 4.82843L13.6569 4.12132L13.1619 3.62635L12.4548 4.33345ZM10.4749 2.35355L12.4548 4.33345L13.1619 3.62635L11.182 1.64645L10.4749 2.35355ZM10.3335 3.20208L11.182 2.35355L10.4749 1.64645L9.62635 2.49497L10.3335 3.20208ZM11.5228 3.68428L10.3335 2.49497L9.62635 3.20208L10.8157 4.39139L11.5228 3.68428ZM3.5 13C3.5 8.5704 6.8887 4.9317 11.2148 4.53575L11.1236 3.53992C6.28749 3.98255 2.5 8.04868 2.5 13H3.5ZM12 21.5C7.30558 21.5 3.5 17.6944 3.5 13H2.5C2.5 18.2467 6.75329 22.5 12 22.5V21.5ZM20.5 13C20.5 17.6944 16.6944 21.5 12 21.5V22.5C17.2467 22.5 21.5 18.2467 21.5 13H20.5ZM18.0104 6.98959C19.5492 8.52834 20.5 10.6527 20.5 13H21.5C21.5 10.3768 20.4361 8.0011 18.7175 6.28249L18.0104 6.98959ZM17.869 7.83812L18.7175 6.98959L18.0104 6.28249L17.1619 7.13101L17.869 7.83812ZM20.3 13C20.3 10.7681 19.4159 8.6779 17.869 7.13101L17.1619 7.83812C18.5232 9.19948 19.3 11.0361 19.3 13H20.3ZM12 21.3C16.584 21.3 20.3 17.584 20.3 13H19.3C19.3 17.0317 16.0317 20.3 12 20.3V21.3ZM3.7 13C3.7 17.584 7.41604 21.3 12 21.3V20.3C7.96832 20.3 4.7 17.0317 4.7 13H3.7ZM11.5503 4.71199C7.1752 4.94583 3.7 8.56691 3.7 13H4.7C4.7 9.10132 7.7565 5.91619 11.6036 5.71056L11.5503 4.71199ZM11.2234 4.85772L9.62635 6.45477L10.3335 7.16188L11.9305 5.56483L11.2234 4.85772ZM9.62635 7.16188L10.4749 8.01041L11.182 7.3033L10.3335 6.45477L9.62635 7.16188ZM11.182 8.01041L13.1619 6.03051L12.4548 5.3234L10.4749 7.3033L11.182 8.01041ZM12.9497 4.82843L12.4548 5.3234L13.1619 6.03051L13.6569 5.53553L12.9497 4.82843Z" fill="#4D6FFF"/>
</svg>
