<svg width="30" height="30" viewBox="0 0 30 30" fill="none" xmlns="http://www.w3.org/2000/svg">
  <path
    d="M14.9678 1.77832C7.77246 1.77832 1.88086 7.63184 1.88086 14.8652C1.88086 22.0605 7.73144 27.9492 14.9648 27.9492C22.1982 27.9492 28.0488 22.0986 28.0488 14.8652C28.0518 7.66992 22.2012 1.77832 14.9678 1.77832Z"
    fill="#4d6fff"/>
  <path
    d="M12.3018 20.0069L20.2734 15.4073C20.584 15.2256 20.584 14.7744 20.2734 14.5928L12.3018 9.99027C11.9883 9.81156 11.5986 10.0371 11.5986 10.3975V19.5996C11.5986 19.9629 11.9883 20.1885 12.3018 20.0069Z"
    fill="white" fill-opacity="0.9"/>
</svg>
