<svg width="48" height="48" viewBox="0 0 48 48" fill="none" xmlns="http://www.w3.org/2000/svg">
<g clip-path="url(#clip0)">
<path fill-rule="evenodd" clip-rule="evenodd" d="M38.8801 39.46C42.3801 39.46 45.2801 36.64 45.6401 33.04V32.98L48.0001 9.27998C48.0401 8.87998 47.7401 8.53998 47.3401 8.53998H30.4801C30.3401 8.53998 30.2001 8.61998 30.1401 8.75998L28.6001 12.48C28.5001 12.72 28.6801 13 28.9401 13H39.9401C40.1601 13 40.3201 13.18 40.3001 13.4L39.4801 21.68C39.4601 21.86 39.3001 22.02 39.1201 22.02H24.9001C24.7601 22.02 24.6201 22.1 24.5801 22.24L23.0201 25.94C22.9201 26.18 23.1001 26.46 23.3601 26.46L38.6201 26.48C38.8401 26.48 39.0001 26.66 38.9801 26.88L38.6201 31.68L38.5601 32.72C38.3201 34.6 36.7801 35.02 34.8201 35.02H19.1201C18.9601 35.02 18.8201 35.12 18.7601 35.26L17.2401 38.96C17.1401 39.2 17.3201 39.48 17.5801 39.48L38.8801 39.46Z" fill="#48ACFF"/>
<path d="M6.74004 15.6008C9.06004 15.7608 11 17.5208 11.52 19.8608L14.74 34.8608H14.92C14.92 34.8608 23.08 15.1208 25.58 9.06079C25.68 8.82079 25.5 8.56079 25.24 8.56079H10.3H9.88004C6.14004 8.68079 2.84004 11.7208 2.44004 15.4608L3.98105e-05 38.7208C-0.0399602 39.1208 0.26004 39.4608 0.66004 39.4608H10.44C10.68 39.4608 10.88 39.2208 10.82 39.0008L4.86004 16.2208C4.80004 16.0208 4.92004 15.8208 5.10004 15.7808C5.52004 15.6608 6.26004 15.5808 6.74004 15.6008Z" fill="#4FC6FB"/>
<path d="M8.45999 8.53998C8.37999 8.53998 8.31999 8.53998 8.23999 8.55998H8.65999C8.61999 8.53998 8.53999 8.53998 8.45999 8.53998Z" fill="url(#paint0_linear)"/>
</g>
<defs>
<linearGradient id="paint0_linear" x1="8.25669" y1="8.54004" x2="8.68257" y2="8.54004" gradientUnits="userSpaceOnUse">
<stop stop-color="#00A1FF"/>
<stop offset="1" stop-color="#005CFF"/>
</linearGradient>
<clipPath id="clip0">
<rect width="48" height="48" fill="white"/>
</clipPath>
</defs>
</svg>
